<svg class="icon-fields--svg icon-help" xmlns="http://www.w3.org/2000/svg" role="presentation" aria-labeledby="title-help" width="33" height="32" viewBox="0 0 33 32">
<title id="title-help">Help icon</title>
  <path class="fill--dkgrey" d="M18.01 24.006c0 1.104-.895 1.998-1.998 1.998s-1.998-.895-1.998-1.998c0-1.104.895-1.998 1.998-1.998 1.098.013 1.985.9 1.998 1.997v.001z"/>
  <path class="fill--dkgrey" d="M16.012 0C7.169 0 0 7.169 0 16.012s7.169 16.012 16.012 16.012 16.012-7.169 16.012-16.012v-.025.001C32.024 7.158 24.866 0 16.036 0h-.025.001zm0 29.002c-7.188 0-13.014-5.827-13.014-13.014S8.825 2.974 16.012 2.974c7.188 0 13.014 5.827 13.014 13.014 0 7.188-5.827 13.014-13.014 13.014z"/>
  <path class="fill--dkgrey" d="M15.893 20.009c-.828 0-1.499-.671-1.499-1.499.095-.619-.381-2.189 1.213-3.807s4.045-2.213 4.045-3.712c0-3.069-6.114-4.164-7.352-.071-.153.678-.75 1.176-1.464 1.176-.828 0-1.499-.671-1.499-1.499 0-.201.04-.393.111-.568l-.004.01c2.189-7.304 13.204-5.591 13.204.952 0 4.211-5.258 4.877-5.258 6.519v.999c0 .828-.671 1.499-1.499 1.499z"/>
</svg>
