<svg aria-hidden="true" focusable="false" xmlns="http://www.w3.org/2000/svg" width="50" height="50" id="ud-icon-men" role="img" aria-labeledby="title-menu" viewBox="0 0 50 50">
  <title id="title-menu">menu icon</title>
  <path class="fill--white" d="M32.59 30.396c0 .896-.92 1.627-2.052 1.627H2.028C.92 32.023 0 31.292 0 30.396V10.8c0-.896.92-1.604 2.028-1.604h28.51c1.132 0 2.052.707 2.052 1.604z"></path>
  <path class="fill--dark-gray" d="M9.716 6.178V1.32c0-1.721-3.042-1.745-3.042 0v4.858c0 1.721 3.042 1.745 3.042 0zm14.691 1.25h.472c2.028 0 1.038-2.924 1.297-5.117C26.105 2.099 26.53 0 24.879 0c-.094.047-1.745-.236-1.745 1.297v1.014c.236 2.146-.731 5.117 1.273 5.117z"></path>
  <path class="fill--dark-gray" d="M30.491 2.641h-3.278v3.844c0 2.735-5.117 2.735-5.117-.33V2.641H10.753v3.537c0 3.113-5.117 3.113-5.117 0V2.641H2.099A2.1 2.1 0 0 0 0 4.74v25.185a2.1 2.1 0 0 0 2.099 2.099h28.392a2.1 2.1 0 0 0 2.099-2.099V4.74a2.1 2.1 0 0 0-2.099-2.099zm0 27.284H2.099v-19.03h28.392v19.03z"></path>
  <path class="fill--dark-gray" d="M17.38 17.285c3.325-.094 4.009.236 4.009-.259-.094-2.877.212-3.514-.283-3.514-3.325.094-4.009-.236-4.009.259.094 2.877-.212 3.514.283 3.514zm6.107 0c3.325-.094 4.009.236 4.009-.259-.094-2.877.212-3.514-.283-3.514-3.325.094-4.009-.236-4.009.259.118 2.877-.212 3.514.283 3.514zM8.89 22.591h.001a.284.284 0 0 0 .282-.258v-.001c-.118-2.877.212-3.514-.283-3.514-3.325.094-4.009-.236-4.009.259v3.254c0 .495.684.165 4.009.259zm2.358 0c3.349-.094 4.032.236 4.032-.259-.118-2.901.212-3.514-.283-3.514-3.325.094-4.009-.236-4.009.259.094 2.877-.212 3.514.259 3.514zm9.857 0c.495 0 .189-.637.283-3.514 0-.495-.684-.165-4.009-.259-.495 0-.189.637-.283 3.514 0 .495.684.165 4.009.259zm6.108 0c.495 0 .189-.637.283-3.514 0-.495-.684-.165-4.009-.259-.495 0-.165.637-.283 3.514 0 .495.684.165 4.009.259zM8.89 24.124c-3.325.094-4.009-.236-4.009.259.094 2.877-.212 3.514.259 3.514 3.325-.094 4.032.236 4.032-.259-.118-2.877.212-3.514-.283-3.514zm6.108 0c-3.325.094-4.009-.236-4.009.259.094 2.877-.212 3.514.259 3.514 3.349-.094 4.032.236 4.032-.259-.118-2.901.212-3.514-.283-3.514zm6.107 0c-3.349.094-4.009-.236-4.009.259.094 2.877-.212 3.514.283 3.514 3.325-.094 4.009.236 4.009-.259-.094-2.877.212-3.514-.283-3.514zm2.382 0c-.495 0-.165.637-.283 3.514 0 .495.684.165 4.009.259.495 0 .189-.637.283-3.514 0-.495-.684-.165-4.009-.259z"></path>
</svg>
