<svg aria-hidden="true" focusable="false" xmlns="http://www.w3.org/2000/svg" width="256" height="256" viewBox="0 0 256 256">
	<defs>
		<style>
			svg:hover {fill: white}
		</style>
		<symbol id="ud-icon-twitter" role="img" aria-labeledby="title-tw" viewBox="0 0 256 256">
			<title id="title-tw">twitter icon</title>
			<path d="M228.9,76.1c.2,2.3.2,4.5.2,6.8,0,69-52.4,148.6-148.2,148.6A146.3,146.3,0,0,1,1,208a104.9,104.9,0,0,0,77.2-21.6,52.3,52.3,0,0,1-48.7-36.2c8,1.1,15.1,1.2,23.6-1A52.3,52.3,0,0,1,11.3,97.9v-.6a51.7,51.7,0,0,0,23.5,6.6A52.4,52.4,0,0,1,18.7,34.1,148.5,148.5,0,0,0,126.1,88.7C114.8,34.2,179.9,3.5,214.9,41a103.1,103.1,0,0,0,33-12.6A52.5,52.5,0,0,1,225,57.2a107.3,107.3,0,0,0,30-8.1,113.4,113.4,0,0,1-26.1,27Z"></path>
		</symbol>
		<symbol id="ud-icon-facebook" role="img" aria-labeledby="title-fb" viewBox="0 0 256 256">
			<title id="title-fb">facebook icon</title>
			<path d="M102.1,93.4H76V128h26.1V231.5h43.4V128h31.3L180,93.4H145.2V78.7c0-8.6,1.7-11.3,9.5-11.3h25V24.5H147.1c-31.2,0-45,13.7-45,39.7Z"></path>
		</symbol>
		<symbol id="ud-icon-instagram" role="img" aria-labeledby="title-in" viewBox="0 0 256 256">
			<title id="title-in">instagram icon</title>
			<path d="M128,74.9A53.1,53.1,0,1,0,181.1,128,53,53,0,0,0,128,74.9Zm0,87.6A34.5,34.5,0,1,1,162.5,128,34.6,34.6,0,0,1,128,162.5Zm67.6-89.7a12.4,12.4,0,1,1-12.3-12.4A12.3,12.3,0,0,1,195.6,72.8Zm35.2,12.5c-.8-16.6-4.6-31.3-16.7-43.4s-26.8-15.8-43.4-16.7-68.3-.9-85.4,0S54.1,29.8,41.9,41.9,26.1,68.7,25.2,85.3s-.9,68.3,0,85.4,4.6,31.3,16.7,43.4,26.8,15.8,43.4,16.7,68.3.9,85.4,0,31.3-4.6,43.4-16.7,15.8-26.8,16.7-43.4.9-68.3,0-85.4ZM208.7,189A35,35,0,0,1,189,208.7c-13.6,5.4-45.9,4.2-61,4.2s-47.4,1.2-61-4.2A35.3,35.3,0,0,1,47.3,189c-5.4-13.6-4.1-45.9-4.1-61S42,80.6,47.3,67A35,35,0,0,1,67,47.3c13.6-5.4,46-4.2,61-4.2s47.4-1.2,61,4.2A34.7,34.7,0,0,1,208.7,67c5.4,13.6,4.2,45.9,4.2,61S214.1,175.4,208.7,189Z"></path>
		</symbol>
		<symbol id="ud-icon-youtube" role="img" aria-labeledby="title-yt" viewBox="0 0 256 256">
			<title id="title-yt">youtube icon</title>
			<path d="M65.2,24.5H77l8.4,31.9,7.7-31.9h12.6L91.2,71.9v32.7H79.7V71.9Zm39.2,36.2V88.9c0,10.4,5,15.5,16.1,15.5,8.4,0,15.3-6.2,15.3-15.5V60.7C138,40.6,104.4,39.4,104.4,60.7Zm21.4,28.2c0,3.5-1.6,5.1-4.3,5.1a4.9,4.9,0,0,1-5-5.1V61.5c0-8.7,9.3-7.8,9.3,0Zm40-43.6V90c-1.8,1.6-4.5,4.3-6.1,4.3s-2.6-1.6-2.6-4.3V45.3H146v49c0,6.1,1.6,10.3,7.7,10.3,3.4,0,7.6-1.6,12.6-7.7v6.9h11.1V45.3Zm18.7,119.5c-5.6,0-3.9,7.4-4.2,13.1h9.5v-6.2C188.7,167.2,187.9,164.8,184.5,164.8Zm-40,0c-.8,0-1.6.8-2.7,1.6v35.1a4.1,4.1,0,0,0,2.7,1.6c1.5.8,4.2.8,5-.8s.8-1.6.8-3.4c0-31.9.3-32.5-.8-33.6S146,163.7,144.5,164.8Zm40.8-44.7c-22.1-.8-93.5-.8-115.7,0s-27.1,16.2-27.1,55.1,2.6,53.2,27.1,55.1c22.2,1.6,94.6,1.6,116.8,0s26.3-16.2,27.1-55.1C212.4,136.3,209,121.7,185.3,120.1ZM80.7,211.9H68.8V147.5H57V136.3H92.8v11.2H81v64.4Zm31.4,0v-5.8a13.8,13.8,0,0,1-6.1,5c-6.1,3.5-12.6,3.5-12.6-8.5V156h10.2c.8,43.9-1.8,46.6,2.7,46.6,1.8,0,5-2.6,6-4.2V156h10.3v55.9Zm49.2-11.2c0,7-2.6,12-9.5,12a11.8,11.8,0,0,1-9.4-5v4.2H132.1V136.3h10.3v24c2.6-2.7,5-5.1,9.4-5.1,7.7,0,10.3,6.1,10.3,13.9Zm38.5-15.4H180.3c0,13.5-1,18.1,4.2,18.1s4.2-3.5,4.2-12H199c-.6,3.4,3.6,22.4-15.3,22.4-10.2,0-14.5-6.9-14.5-17.3v-25c0-9.6,6.1-16.3,15.3-16.3s14.5,6.1,14.5,16.3Z"></path>
		</symbol>
		<symbol id="ud-icon-linkedin" role="img" aria-labeledby="title-li" viewBox="0 0 256 256">
			<title id="title-li">linkedin icon</title>
			<path d="M66.7,47.1c0,12.5-9.6,22.6-22,22.6S23,59.6,23,47.1s9.6-22.6,22-22.6S66.7,34.3,66.7,47.1Zm0,40.4H23v144H66.7Zm70.1,0H93.1v144h43.7V155.8c0-42.3,52.5-46,52.5,0v75.4H233V140.6c0-70.9-77.8-68.3-96.2-33.2Z"></path>
		</symbol>
		<symbol id="ud-icon-pinterest" role="img" aria-labeledby="title-pi" viewBox="0 0 256 256">
			<title id="title-pi">pinterest icon</title>
			<path d="M132.8,24.5C76.3,24.5,48,65.1,48,98.7c0,20.6,7.7,38.8,24.3,45.4,2.6,1.1,5,0,5.8-2.9,3.3-12.9,3.9-12.5.8-16.3-4.8-5.6-7.7-12.8-7.7-23.2,0-30.2,22.4-56.9,58.4-56.9,32,0,49.3,19.5,49.3,45.7,0,34.1-15.2,63.3-37.6,63.3-12.5,0-21.6-10.5-18.6-23,3.4-15,10.4-31.3,10.4-42.2s-5.4-17.9-16-17.9c-12.8,0-23,13.1-23,30.7a44.9,44.9,0,0,0,3.8,18.7S85.1,175.4,82.7,185c-4.6,19.2-.8,42.7-.3,45.1a1.7,1.7,0,0,0,2.9.8c1.1-1.6,16.3-20.3,21.4-39,1.3-5.3,8.2-32.5,8.2-32.5,4,8,16.3,14.6,29.1,14.6,38.1,0,64-34.7,64-81.4C208,57.3,178.1,24.5,132.8,24.5Z"></path>
		</symbol>
	</defs>
</svg>
